[
  {
    "being_id": "4",
    "appliance_id": "1",
    "time_needed": "10",
    "priority": "1",
    "type": "ON"
  },
  {
    "being_id": "4",
    "appliance_id": "1",
    "time_needed": "10",
    "priority": "1",
    "type": "USE"
  },
  {
    "being_id": "4",
    "appliance_id": "1",
    "time_needed": "10",
    "priority": "1",
    "type": "OFF"
  },
  {
    "being_id": "4",
    "appliance_id": "2",
    "time_needed": "10",
    "priority": "1",
    "type": "ON"
  },
  {
    "being_id": "1",
    "appliance_id": "2",
    "time_needed": "10",
    "priority": "1",
    "type": "USE"
  },
  {
    "being_id": "1",
    "appliance_id": "3",
    "time_needed": "10",
    "priority": "1",
    "type": "OFF"
  },
  {
    "being_id": "2",
    "appliance_id": "1",
    "time_needed": "10",
    "priority": "1",
    "type": "ON"
  },
  {
    "being_id": "2",
    "appliance_id": "2",
    "time_needed": "10",
    "priority": "1",
    "type": "ON"
  },
  {
    "being_id": "3",
    "appliance_id": "3",
    "time_needed": "10",
    "priority": "1",
    "type": "ON"
  },
  {
    "being_id": "4",
    "appliance_id": "4",
    "time_needed": "10",
    "priority": "1",
    "type": "OFF"
  }
]